<?xml version="1.0" encoding="utf-8"?>
<svg viewBox="0 0 100 100" xmlns="http://www.w3.org/2000/svg" xmlns:bx="https://boxy-svg.com">
  <defs>
    <linearGradient id="gradient-1" gradientUnits="userSpaceOnUse" x1="50.001" y1="-102.001" x2="50.001" y2="-2" gradientTransform="matrix(-0.999999, 0.002048, -0.001964, -0.958855, 99.408576, -100.68673)">
      <stop style="stop-color: rgb(125, 134, 187);" offset="0"/>
      <stop style="stop-color: rgb(49, 53, 82);" offset="1"/>
    </linearGradient>
  </defs>
  <ellipse style="fill: rgb(23, 30, 80);" cx="49.469" cy="-38.271" rx="33.329" ry="14.858"/>
  <path d="M 14.624 -36.463 C -3.654 -51.962 12.363 -80.858 50.05 -80.513 C 89.22 -80.155 99.716 -48.442 82.447 -35.88 C 61.903 -20.936 48.768 -47.185 48.768 -47.185 C 48.768 -47.185 34.291 -19.787 14.624 -36.463 Z" style="stroke: black; fill: rgb(186, 218, 85);" bx:origin="0.5 0.5"/>
  <g transform="matrix(1.221274, 0, 0, 1.221274, -5.088941, -103.318283)">
    <ellipse style="fill: rgb(216, 216, 216);" cx="26.685" cy="41.765" rx="13.693" ry="13.693"/>
    <ellipse style="fill: rgb(0, 0, 0);" cx="26.685" cy="41.765" rx="8.332" ry="8.332"/>
  </g>
  <g transform="matrix(1.221273, 0, 0, 1.221273, -19.133074, -102.252075)">
    <ellipse style="fill: rgb(216, 216, 216);" cx="72.775" cy="40.892" rx="13.693" ry="13.693"/>
    <ellipse style="fill: rgb(0, 0, 0);" cx="72.775" cy="40.892" rx="8.332" ry="8.332"/>
  </g>
  <path d="M 47.953 11.525 Z" style="stroke: black; fill: none;"/>
  <ellipse style="fill: rgb(216, 216, 216);" cx="24.53" cy="32.735" rx="2.972" ry="2.972" transform="matrix(1.000001, 0, 0, 1, 6.525932, -90.057335)"/>
  <path d="M 49.035 -31.22 C 49.035 -31.22 50.645 -59.292 93.052 -78.999 C 93.114 -79.027 97.849 -83.42 93.054 -90.886 C 92.975 -91.008 70.564 -77.622 49.829 -77.368 C 27.252 -77.091 7.534 -90.701 7.511 -90.654 C 3.782 -83.011 7.388 -78.716 7.512 -78.649 C 46.333 -57.764 49.035 -31.22 49.035 -31.22 Z" style="stroke: black; fill: rgb(218, 85, 147);" bx:origin="0.5 0.5"/>
  <ellipse style="fill: rgb(216, 216, 216);" cx="72.367" cy="-57.731" rx="2.972" ry="2.972"/>
  <path d="M 40.501 -94.744 Q 50.001 -102.001 59.501 -94.744 L 90.501 -71.062 Q 100.001 -63.804 96.372 -52.061 L 84.531 -13.743 Q 80.903 -2 69.16 -2 L 30.842 -2 Q 19.099 -2 15.471 -13.743 L 3.63 -52.061 Q 0.001 -63.804 9.501 -71.062 Z" style="fill: url(#gradient-1);" transform="matrix(1, 0, 0, -1, 0, 0)" bx:shape="n-gon 50.001 -46.722 52.573 55.279 5 0.19 1@0b018df2"/>
  <g>
    <rect x="58.898" y="40.65" width="10.54" height="10.54" style="fill: rgb(255, 255, 255); fill-opacity: 0.5;"/>
    <rect x="19.98" y="40.65" width="10.54" height="10.54" style="fill: rgb(255, 255, 255); fill-opacity: 0.5;"/>
  </g>
  <path d="M 50.001 6.832 L 69.452 26.747 L 30.549 26.747 L 50.001 6.832 Z" style="fill: rgb(255, 255, 255); fill-opacity: 0.3;" bx:shape="triangle 30.549 6.832 38.903 19.915 0.5 0 1@eff14a1a"/>
  <path d="M 50.002 -92.63 L 76.18 -62.218 L 23.823 -62.218 L 50.002 -92.63 Z" style="fill: rgb(255, 255, 255); fill-opacity: 0.3;" transform="matrix(1, 0, 0, -1, 0, 0)" bx:shape="triangle 23.823 -92.63 52.357 30.412 0.5 0 1@0d9bbd68"/>
  <path d="M 50 98.373 L 50 2 L 69.159 2 C 76.988 2 82.111 5.914 84.53 13.743 L 96.371 52.061 C 98.79 59.89 96.833 66.223 90.5 71.062 L 59.5 94.744 C 56.333 97.163 53.167 98.373 50 98.373 Z" style="fill: rgba(71, 148, 82, 0.619608); mix-blend-mode: overlay; fill-rule: nonzero;" bx:origin="0 -Infinity"/>
  <g>
    <g>
      <path d="M 50.002 78.204 L 59.917 58.558 C 59.681 58.233 59.461 57.894 59.258 57.542 C 54.773 49.773 60.34 40.07 69.285 39.994 L 73.211 32.214 L 26.792 32.214 L 30.698 39.954 C 34.843 39.987 38.664 42.21 40.739 45.804 C 43.224 50.108 42.623 55.005 40.073 58.53 Z" style="fill: rgb(255, 255, 255);" bx:origin="0 0"/>
      <g transform="matrix(1, 0, 0, 1.142676, 0, -2.324575)">
        <g transform="matrix(1, 0, 0, 1, -0.157949, 0)">
          <rect x="-73.294" y="3.268" width="33" height="13" rx="4.738" ry="4.738" style="fill: rgb(255, 255, 255);" transform="matrix(0.956218, -0.292654, 0.292655, 0.956218, 116.128668, 1.375525)"/>
          <rect x="73.294" y="-3.268" width="33" height="13" rx="4.377" ry="4.377" style="fill: rgb(255, 255, 255);" transform="matrix(-0.956218, -0.292654, -0.292655, 0.956218, 122.444517, 50.524946)"/>
        </g>
      </g>
      <path d="M 69.39 51.157 m -18.856 0 a 18.856 18.856 0 1 0 37.712 0 a 18.856 18.856 0 1 0 -37.712 0 Z M 69.39 51.157 m -9.153 0 a 9.153 9.153 0 0 1 18.306 0 a 9.153 9.153 0 0 1 -18.306 0 Z" style="fill: rgb(255, 255, 255);" bx:shape="ring 69.39 51.157 9.153 9.153 18.856 18.856 1@338802f9"/>
      <path d="M 30.607 51.112 m -18.856 0 a 18.856 18.856 0 1 0 37.712 0 a 18.856 18.856 0 1 0 -37.712 0 Z M 30.607 51.112 m -9.153 0 a 9.153 9.153 0 0 1 18.306 0 a 9.153 9.153 0 0 1 -18.306 0 Z" style="fill: rgb(255, 255, 255);" bx:shape="ring 30.607 51.112 9.153 9.153 18.856 18.856 1@b9892f8f"/>
    </g>
  </g>
</svg>